…
Attaching package: ‘dplyr’

The following objects are masked from ‘package:stats’:

    filter, lag

The following objects are masked from ‘package:base’:

    intersect, setdiff, setequal, union

# A tibble: 205 × 9
    year sex   name         n    prop alive_prob count_thousands age_today
   <dbl> <chr> <chr>    <int>   <dbl>      <dbl>           <dbl>     <dbl>
 1  1900 M     Benjamin   450 0.00278   0                  0.45        114
 2  1901 M     Benjamin   343 0.00297   0.000025           0.343       113
 3  1902 M     Benjamin   374 0.00282   0.00005            0.374       112
 4  1903 M     Benjamin   324 0.00251   0.000075           0.324       111
 5  1904 M     Benjamin   358 0.00258   0.0001             0.358       110
 6  1905 M     Benjamin   379 0.00265   0.000125           0.379       109
 7  1906 M     Benjamin   352 0.00244   0.00015            0.352       108
 8  1907 M     Benjamin   460 0.00290   0.000175           0.46        107
 9  1908 M     Benjamin   480 0.00289   0.0002             0.48        106
10  1909 M     Benjamin   489 0.00276   0.000225           0.489       105
# … with 195 more rows, and 1 more variable: est_alive_today <dbl>
…
> nameEx("ordway_birds")
> ### * ordway_birds
> 
> flush(stderr()); flush(stdout())
> 
> ### Name: ordway_birds
> ### Title: Birds captured and released at Ordway, complete and uncleaned
> ### Aliases: ordway_birds
> ### Keywords: datasets
> 
> ### ** Examples
> 
> 
> ordway_birds
# A tibble: 15,829 × 26
   bogus Timestamp    Year   Day   Month CaptureTime SpeciesName Sex   Age      
   <chr> <chr>        <chr>  <chr> <chr> <chr>       <chr>       <chr> <chr>    
 1 .     "4/14/2010 … "1972" "16"  "7"   "7:00:00"   "Song Spar… "U"   "AHY (Af…
 2 .     ""           ""     ""    ""    ""          ""          ""    ""       
 3 .     "5/13/2010 … "1972" "16"  "7"   "7:00:00"   "Song Spar… "U"   "AHY (Af…
 4 .     "5/13/2010 … "1972" "16"  "7"   "7:00:00"   "Field Spa… "U"   "AHY (Af…
 5 .     "5/13/2010 … "1972" "16"  "7"   "7:00:00"   "Field Spa… "U"   "AHY (Af…
 6 .     "5/13/2010 … "1972" "16"  "7"   "7:00:00"   "Song Spar… "U"   "AHY (Af…
 7 .     "5/13/2010 … "1972" "16"  "7"   "13:00:00"  "Field Spa… "U"   "HY (Hat…
 8 .     "5/13/2010 … "1972" "16"  "7"   "13:00:00"  "Song Spar… "U"   "HY (Hat…
 9 .     "5/13/2010 … "1972" "16"  "7"   "15:00:00"  "Field Spa… "U"   "HY (Hat…
10 .     "5/13/2010 … "1972" "16"  "7"   "17:00:00"  "House Spa… "U"   "HY (Hat…
# … with 15,819 more rows, and 17 more variables: BandNumber <chr>,
#   TrapID <chr>, Weather <chr>, BandingReport <chr>, RecaptureYN <chr>,
#   RecaptureMonth <chr>, RecaptureDay <chr>, Condition <chr>, Release <chr>,
#   Comments <chr>, DataEntryPerson <chr>, Weight <chr>, WingChord <chr>,
#   Temperature <chr>, RecaptureOriginal <chr>, RecapturePrevious <chr>,
#   TailLength <chr>
…
> nameEx("world_cities")
> ### * world_cities
> 
> flush(stderr()); flush(stdout())
> 
> ### Name: world_cities
> ### Title: Cities and their populations
> ### Aliases: world_cities
> ### Keywords: datasets
> 
> ### ** Examples
> 
> 
> world_cities
# A tibble: 4,428 × 9
   geoname_id name          latitude longitude country country_region population
        <dbl> <chr>            <dbl>     <dbl> <chr>   <chr>               <dbl>
 1     291074 Ras Al Khaim…     25.8      55.9 AE      05                 351943
 2     292223 Dubai             25.1      55.3 AE      03                2956587
 3     292672 Sharjah           25.3      55.4 AE      06                1324473
 4     292932 Ajman City        25.4      55.5 AE      02                 490035
 5     292968 Abu Dhabi         24.5      54.4 AE      01                 603492
 6   12042053 Musaffah          24.4      54.5 AE      01                 243341
 7    1133616 Mazar-e Shar…     36.7      67.1 AF      30                 303282
 8    1135689 Kunduz            36.7      68.9 AF      24                 161902
 9    1138336 Kandahar          31.6      65.7 AF      23                 391190
10    1138958 Kabul             34.5      69.2 AF      13                3043532
# … with 4,418 more rows, and 2 more variables: timezone <chr>,
#   modification_date <date>
…
